MIPS_quartus_fowarding/simulation/qsim/MIPS_projeto.msim.vcd
$comment
	File created using the following command:
		vcd file MIPS_projeto.msim.vcd -direction
$end
$date
	Sat Nov 03 21:42:42 2018
$end
$version
	ModelSim Version 10.5b
$end
$timescale
	1ps
$end

$scope module testbench_vhd_vec_tst $end
$var wire 1 ! certo $end
$var wire 1 " clk $end
$var wire 1 # dataadr [31] $end
$var wire 1 $ dataadr [30] $end
$var wire 1 % dataadr [29] $end
$var wire 1 & dataadr [28] $end
$var wire 1 ' dataadr [27] $end
$var wire 1 ( dataadr [26] $end
$var wire 1 ) dataadr [25] $end
$var wire 1 * dataadr [24] $end
$var wire 1 + dataadr [23] $end
$var wire 1 , dataadr [22] $end
$var wire 1 - dataadr [21] $end
$var wire 1 . dataadr [20] $end
$var wire 1 / dataadr [19] $end
$var wire 1 0 dataadr [18] $end
$var wire 1 1 dataadr [17] $end
$var wire 1 2 dataadr [16] $end
$var wire 1 3 dataadr [15] $end
$var wire 1 4 dataadr [14] $end
$var wire 1 5 dataadr [13] $end
$var wire 1 6 dataadr [12] $end
$var wire 1 7 dataadr [11] $end
$var wire 1 8 dataadr [10] $end
$var wire 1 9 dataadr [9] $end
$var wire 1 : dataadr [8] $end
$var wire 1 ; dataadr [7] $end
$var wire 1 < dataadr [6] $end
$var wire 1 = dataadr [5] $end
$var wire 1 > dataadr [4] $end
$var wire 1 ? dataadr [3] $end
$var wire 1 @ dataadr [2] $end
$var wire 1 A dataadr [1] $end
$var wire 1 B dataadr [0] $end
$var wire 1 C reset $end
$var wire 1 D writedata [31] $end
$var wire 1 E writedata [30] $end
$var wire 1 F writedata [29] $end
$var wire 1 G writedata [28] $end
$var wire 1 H writedata [27] $end
$var wire 1 I writedata [26] $end
$var wire 1 J writedata [25] $end
$var wire 1 K writedata [24] $end
$var wire 1 L writedata [23] $end
$var wire 1 M writedata [22] $end
$var wire 1 N writedata [21] $end
$var wire 1 O writedata [20] $end
$var wire 1 P writedata [19] $end
$var wire 1 Q writedata [18] $end
$var wire 1 R writedata [17] $end
$var wire 1 S writedata [16] $end
$var wire 1 T writedata [15] $end
$var wire 1 U writedata [14] $end
$var wire 1 V writedata [13] $end
$var wire 1 W writedata [12] $end
$var wire 1 X writedata [11] $end
$var wire 1 Y writedata [10] $end
$var wire 1 Z writedata [9] $end
$var wire 1 [ writedata [8] $end
$var wire 1 \ writedata [7] $end
$var wire 1 ] writedata [6] $end
$var wire 1 ^ writedata [5] $end
$var wire 1 _ writedata [4] $end
$var wire 1 ` writedata [3] $end
$var wire 1 a writedata [2] $end
$var wire 1 b writedata [1] $end
$var wire 1 c writedata [0] $end

$scope module i1 $end
$var wire 1 d gnd $end
$var wire 1 e vcc $end
$var wire 1 f unknown $end
$var wire 1 g devoe $end
$var wire 1 h devclrn $end
$var wire 1 i devpor $end
$var wire 1 j ww_devoe $end
$var wire 1 k ww_devclrn $end
$var wire 1 l ww_devpor $end
$var wire 1 m ww_clk $end
$var wire 1 n ww_reset $end
$var wire 1 o ww_writedata [31] $end
$var wire 1 p ww_writedata [30] $end
$var wire 1 q ww_writedata [29] $end
$var wire 1 r ww_writedata [28] $end
$var wire 1 s ww_writedata [27] $end
$var wire 1 t ww_writedata [26] $end
$var wire 1 u ww_writedata [25] $end
$var wire 1 v ww_writedata [24] $end
$var wire 1 w ww_writedata [23] $end
$var wire 1 x ww_writedata [22] $end
$var wire 1 y ww_writedata [21] $end
$var wire 1 z ww_writedata [20] $end
$var wire 1 { ww_writedata [19] $end
$var wire 1 | ww_writedata [18] $end
$var wire 1 } ww_writedata [17] $end
$var wire 1 ~ ww_writedata [16] $end
$var wire 1 !! ww_writedata [15] $end
$var wire 1 "! ww_writedata [14] $end
$var wire 1 #! ww_writedata [13] $end
$var wire 1 $! ww_writedata [12] $end
$var wire 1 %! ww_writedata [11] $end
$var wire 1 &! ww_writedata [10] $end
$var wire 1 '! ww_writedata [9] $end
$var wire 1 (! ww_writedata [8] $end
$var wire 1 )! ww_writedata [7] $end
$var wire 1 *! ww_writedata [6] $end
$var wire 1 +! ww_writedata [5] $end
$var wire 1 ,! ww_writedata [4] $end
$var wire 1 -! ww_writedata [3] $end
$var wire 1 .! ww_writedata [2] $end
$var wire 1 /! ww_writedata [1] $end
$var wire 1 0! ww_writedata [0] $end
$var wire 1 1! ww_dataadr [31] $end
$var wire 1 2! ww_dataadr [30] $end
$var wire 1 3! ww_dataadr [29] $end
$var wire 1 4! ww_dataadr [28] $end
$var wire 1 5! ww_dataadr [27] $end
$var wire 1 6! ww_dataadr [26] $end
$var wire 1 7! ww_dataadr [25] $end
$var wire 1 8! ww_dataadr [24] $end
$var wire 1 9! ww_dataadr [23] $end
$var wire 1 :! ww_dataadr [22] $end
$var wire 1 ;! ww_dataadr [21] $end
$var wire 1 <! ww_dataadr [20] $end
$var wire 1 =! ww_dataadr [19] $end
$var wire 1 >! ww_dataadr [18] $end
$var wire 1 ?! ww_dataadr [17] $end
$var wire 1 @! ww_dataadr [16] $end
$var wire 1 A! ww_dataadr [15] $end
$var wire 1 B! ww_dataadr [14] $end
$var wire 1 C! ww_dataadr [13] $end
$var wire 1 D! ww_dataadr [12] $end
$var wire 1 E! ww_dataadr [11] $end
$var wire 1 F! ww_dataadr [10] $end
$var wire 1 G! ww_dataadr [9] $end
$var wire 1 H! ww_dataadr [8] $end
$var wire 1 I! ww_dataadr [7] $end
$var wire 1 J! ww_dataadr [6] $end
$var wire 1 K! ww_dataadr [5] $end
$var wire 1 L! ww_dataadr [4] $end
$var wire 1 M! ww_dataadr [3] $end
$var wire 1 N! ww_dataadr [2] $end
$var wire 1 O! ww_dataadr [1] $end
$var wire 1 P! ww_dataadr [0] $end
$var wire 1 Q! ww_certo $end
$var wire 1 R! \reset~input_o\ $end
$var wire 1 S! \clk~input_o\ $end
$var wire 1 T! \~QUARTUS_CREATED_GND~I_combout\ $end
$upscope $end
$upscope $end
$enddefinitions $end
#0
$dumpvars
0!
0"
1C
0d
1e
xf
1g
1h
1i
1j
1k
1l
0m
1n
0Q!
1R!
0S!
xT!
0D
0E
0F
0G
0H
0I
0J
0K
0L
0M
0N
0O
0P
0Q
0R
0S
0T
0U
0V
0W
0X
0Y
0Z
0[
0\
0]
0^
0_
0`
0a
0b
0c
0#
0$
0%
0&
0'
0(
0)
0*
0+
0,
0-
0.
0/
00
01
02
03
04
05
06
07
08
09
0:
0;
0<
0=
0>
0?
0@
0A
0B
0o
0p
0q
0r
0s
0t
0u
0v
0w
0x
0y
0z
0{
0|
0}
0~
0!!
0"!
0#!
0$!
0%!
0&!
0'!
0(!
0)!
0*!
0+!
0,!
0-!
0.!
0/!
00!
01!
02!
03!
04!
05!
06!
07!
08!
09!
0:!
0;!
0<!
0=!
0>!
0?!
0@!
0A!
0B!
0C!
0D!
0E!
0F!
0G!
0H!
0I!
0J!
0K!
0L!
0M!
0N!
0O!
0P!
$end
#5000
1"
1m
1S!
#10000
0"
0m
0S!
#15000
1"
1m
1S!
#20000
0"
0m
0S!
#25000
1"
1m
1S!
#30000
0"
0C
0m
0n
0R!
0S!
#35000
1"
1m
1S!
#40000
0"
0m
0S!
#45000
1"
1m
1S!
#50000
0"
0m
0S!
#55000
1"
1m
1S!
#60000
0"
0m
0S!
#65000
1"
1m
1S!
#70000
0"
0m
0S!
#75000
1"
1m
1S!
#80000
0"
0m
0S!
#85000
1"
1m
1S!
#90000
0"
0m
0S!
#95000
1"
1m
1S!
#100000
0"
0m
0S!
#105000
1"
1m
1S!
#110000
0"
0m
0S!
#115000
1"
1m
1S!
#120000
0"
0m
0S!
#125000
1"
1m
1S!
#130000
0"
0m
0S!
#135000
1"
1m
1S!
#140000
0"
0m
0S!
#145000
1"
1m
1S!
#150000
0"
0m
0S!
#155000
1"
1m
1S!
#160000
0"
0m
0S!
#165000
1"
1m
1S!
#170000
0"
0m
0S!
#175000
1"
1m
1S!
#180000
0"
0m
0S!
#185000
1"
1m
1S!
#190000
0"
0m
0S!
#195000
1"
1m
1S!
#200000
0"
0m
0S!
#205000
1"
1m
1S!
#210000
0"
0m
0S!
#215000
1"
1m
1S!
#220000
0"
0m
0S!
#225000
1"
1m
1S!
#230000
0"
0m
0S!
#235000
1"
1m
1S!
#240000
0"
0m
0S!
#245000
1"
1m
1S!
#250000
0"
0m
0S!
#255000
1"
1m
1S!
#260000
0"
0m
0S!
#265000
1"
1m
1S!
#270000
0"
0m
0S!
#275000
1"
1m
1S!
#280000
0"
0m
0S!
#285000
1"
1m
1S!
#290000
0"
0m
0S!
#295000
1"
1m
1S!
#300000
0"
0m
0S!
#305000
1"
1m
1S!
#310000
0"
0m
0S!
#315000
1"
1m
1S!
#320000
0"
0m
0S!
#325000
1"
1m
1S!
#330000
0"
0m
0S!
#335000
1"
1m
1S!
#340000
0"
0m
0S!
#345000
1"
1m
1S!
#350000
0"
0m
0S!
#355000
1"
1m
1S!
#360000
0"
0m
0S!
#365000
1"
1m
1S!
#370000
0"
0m
0S!
#375000
1"
1m
1S!
#380000
0"
0m
0S!
#385000
1"
1m
1S!
#390000
0"
0m
0S!
#395000
1"
1m
1S!
#400000
0"
0m
0S!
#405000
1"
1m
1S!
#410000
0"
0m
0S!
#415000
1"
1m
1S!
#420000
0"
0m
0S!
#425000
1"
1m
1S!
#430000
0"
0m
0S!
#435000
1"
1m
1S!
#440000
0"
0m
0S!
#445000
1"
1m
1S!
#450000
0"
0m
0S!
#455000
1"
1m
1S!
#460000
0"
0m
0S!
#465000
1"
1m
1S!
#470000
0"
0m
0S!
#475000
1"
1m
1S!
#480000
0"
0m
0S!
#485000
1"
1m
1S!
#490000
0"
0m
0S!
#495000
1"
1m
1S!
#500000
0"
0m
0S!
#505000
1"
1m
1S!
#510000
0"
0m
0S!
#515000
1"
1m
1S!
#520000
0"
0m
0S!
#525000
1"
1m
1S!
#530000
0"
0m
0S!
#535000
1"
1m
1S!
#540000
0"
0m
0S!
#545000
1"
1m
1S!
#550000
0"
0m
0S!
#555000
1"
1m
1S!
#560000
0"
0m
0S!
#565000
1"
1m
1S!
#570000
0"
0m
0S!
#575000
1"
1m
1S!
#580000
0"
0m
0S!
#585000
1"
1m
1S!
#590000
0"
0m
0S!
#595000
1"
1m
1S!
#600000
0"
0m
0S!
#605000
1"
1m
1S!
#610000
0"
0m
0S!
#615000
1"
1m
1S!
#620000
0"
0m
0S!
#625000
1"
1m
1S!
#630000
0"
0m
0S!
#635000
1"
1m
1S!
#640000
0"
0m
0S!
#645000
1"
1m
1S!
#650000
0"
0m
0S!
#655000
1"
1m
1S!
#660000
0"
0m
0S!
#665000
1"
1m
1S!
#670000
0"
0m
0S!
#675000
1"
1m
1S!
#680000
0"
0m
0S!
#685000
1"
1m
1S!
#690000
0"
0m
0S!
#695000
1"
1m
1S!
#700000
0"
0m
0S!
#705000
1"
1m
1S!
#710000
0"
0m
0S!
#715000
1"
1m
1S!
#720000
0"
0m
0S!
#725000
1"
1m
1S!
#730000
0"
0m
0S!
#735000
1"
1m
1S!
#740000
0"
0m
0S!
#745000
1"
1m
1S!
#750000
0"
0m
0S!
#755000
1"
1m
1S!
#760000
0"
0m
0S!
#765000
1"
1m
1S!
#770000
0"
0m
0S!
#775000
1"
1m
1S!
#780000
0"
0m
0S!
#785000
1"
1m
1S!
#790000
0"
0m
0S!
#795000
1"
1m
1S!
#800000
0"
0m
0S!
#805000
1"
1m
1S!
#810000
0"
0m
0S!
#815000
1"
1m
1S!
#820000
0"
0m
0S!
#825000
1"
1m
1S!
#830000
0"
0m
0S!
#835000
1"
1m
1S!
#840000
0"
0m
0S!
#845000
1"
1m
1S!
#850000
0"
0m
0S!
#855000
1"
1m
1S!
#860000
0"
0m
0S!
#865000
1"
1m
1S!
#870000
0"
0m
0S!
#875000
1"
1m
1S!
#880000
0"
0m
0S!
#885000
1"
1m
1S!
#890000
0"
0m
0S!
#895000
1"
1m
1S!
#900000
0"
0m
0S!
#905000
1"
1m
1S!
#910000
0"
0m
0S!
#915000
1"
1m
1S!
#920000
0"
0m
0S!
#925000
1"
1m
1S!
#930000
0"
0m
0S!
#935000
1"
1m
1S!
#940000
0"
0m
0S!
#945000
1"
1m
1S!
#950000
0"
0m
0S!
#955000
1"
1m
1S!
#960000
0"
0m
0S!
#965000
1"
1m
1S!
#970000
0"
0m
0S!
#975000
1"
1m
1S!
#980000
0"
0m
0S!
#985000
1"
1m
1S!
#990000
0"
0m
0S!
#995000
1"
1m
1S!
#1000000
0"
0m
0S!
#1005000
1"
1m
1S!
#1010000
0"
0m
0S!
#1015000
1"
1m
1S!
#1020000
0"
0m
0S!
#1025000
1"
1m
1S!
#1030000
0"
0m
0S!
#1035000
1"
1m
1S!
#1040000
0"
0m
0S!
#1045000
1"
1m
1S!
#1050000
0"
0m
0S!
#1055000
1"
1m
1S!
#1060000
0"
0m
0S!
#1065000
1"
1m
1S!
#1070000
0"
0m
0S!
#1075000
1"
1m
1S!
#1080000
0"
0m
0S!
#1085000
1"
1m
1S!
#1090000
0"
0m
0S!
#1095000
1"
1m
1S!
#1100000
0"
0m
0S!
#1105000
1"
1m
1S!
#1110000
0"
0m
0S!
#1115000
1"
1m
1S!
#1120000
0"
0m
0S!
#1125000
1"
1m
1S!
#1130000
0"
0m
0S!
#1135000
1"
1m
1S!
#1140000
0"
0m
0S!
#1145000
1"
1m
1S!
#1150000
0"
0m
0S!
#1155000
1"
1m
1S!
#1160000
0"
0m
0S!
#1165000
1"
1m
1S!
#1170000
0"
0m
0S!
#1175000
1"
1m
1S!
#1180000
0"
0m
0S!
#1185000
1"
1m
1S!
#1190000
0"
0m
0S!
#1195000
1"
1m
1S!
#1200000
0"
0m
0S!
#1205000
1"
1m
1S!
#1210000
0"
0m
0S!
#1215000
1"
1m
1S!
#1220000
0"
0m
0S!
#1225000
1"
1m
1S!
#1230000
0"
0m
0S!
#1235000
1"
1m
1S!
#1240000
0"
0m
0S!
#1245000
1"
1m
1S!
#1250000
0"
0m
0S!
#1255000
1"
1m
1S!
#1260000
0"
0m
0S!
#1265000
1"
1m
1S!
#1270000
0"
0m
0S!
#1275000
1"
1m
1S!
#1280000
0"
0m
0S!
#1285000
1"
1m
1S!
#1290000
0"
0m
0S!
#1295000
1"
1m
1S!
#1300000
0"
0m
0S!
#1305000
1"
1m
1S!
#1310000
0"
0m
0S!
#1315000
1"
1m
1S!
#1320000
0"
0m
0S!
#1325000
1"
1m
1S!
#1330000
0"
0m
0S!
#1335000
1"
1m
1S!
#1340000
0"
0m
0S!
#1345000
1"
1m
1S!
#1350000
0"
0m
0S!
#1355000
1"
1m
1S!
#1360000
0"
0m
0S!
#1365000
1"
1m
1S!
#1370000
0"
0m
0S!
#1375000
1"
1m
1S!
#1380000
0"
0m
0S!
#1385000
1"
1m
1S!
#1390000
0"
0m
0S!
#1395000
1"
1m
1S!
#1400000
0"
0m
0S!
#1405000
1"
1m
1S!
#1410000
0"
0m
0S!
#1415000
1"
1m
1S!
#1420000
0"
0m
0S!
#1425000
1"
1m
1S!
#1430000
0"
0m
0S!
#1435000
1"
1m
1S!
#1440000
0"
0m
0S!
#1445000
1"
1m
1S!
#1450000
0"
0m
0S!
#1455000
1"
1m
1S!
#1460000
0"
0m
0S!
#1465000
1"
1m
1S!
#1470000
0"
0m
0S!
#1475000
1"
1m
1S!
#1480000
0"
0m
0S!
#1485000
1"
1m
1S!
#1490000
0"
0m
0S!
#1495000
1"
1m
1S!
#1500000
0"
0m
0S!
#1505000
1"
1m
1S!
#1510000
0"
0m
0S!
#1515000
1"
1m
1S!
#1520000
0"
0m
0S!
#1525000
1"
1m
1S!
#1530000
0"
0m
0S!
#1535000
1"
1m
1S!
#1540000
0"
0m
0S!
#1545000
1"
1m
1S!
#1550000
0"
0m
0S!
#1555000
1"
1m
1S!
#1560000
0"
0m
0S!
#1565000
1"
1m
1S!
#1570000
0"
0m
0S!
#1575000
1"
1m
1S!
#1580000
0"
0m
0S!
#1585000
1"
1m
1S!
#1590000
0"
0m
0S!
#1595000
1"
1m
1S!
#1600000
0"
0m
0S!
#1605000
1"
1m
1S!
#1610000
0"
0m
0S!
#1615000
1"
1m
1S!
#1620000
0"
0m
0S!
#1625000
1"
1m
1S!
#1630000
0"
0m
0S!
#1635000
1"
1m
1S!
#1640000
0"
0m
0S!
#1645000
1"
1m
1S!
#1650000
0"
0m
0S!
#1655000
1"
1m
1S!
#1660000
0"
0m
0S!
#1665000
1"
1m
1S!
#1670000
0"
0m
0S!
#1675000
1"
1m
1S!
#1680000
0"
0m
0S!
#1685000
1"
1m
1S!
#1690000
0"
0m
0S!
#1695000
1"
1m
1S!
#1700000
0"
0m
0S!
#1705000
1"
1m
1S!
#1710000
0"
0m
0S!
#1715000
1"
1m
1S!
#1720000
0"
0m
0S!
#1725000
1"
1m
1S!
#1730000
0"
0m
0S!
#1735000
1"
1m
1S!
#1740000
0"
0m
0S!
#1745000
1"
1m
1S!
#1750000
0"
0m
0S!
#1755000
1"
1m
1S!
#1760000
0"
0m
0S!
#1765000
1"
1m
1S!
#1770000
0"
0m
0S!
#1775000
1"
1m
1S!
#1780000
0"
0m
0S!
#1785000
1"
1m
1S!
#1790000
0"
0m
0S!
#1795000
1"
1m
1S!
#1800000
0"
0m
0S!
#1805000
1"
1m
1S!
#1810000
0"
0m
0S!
#1815000
1"
1m
1S!
#1820000
0"
0m
0S!
#1825000
1"
1m
1S!
#1830000
0"
0m
0S!
#1835000
1"
1m
1S!
#1840000
0"
0m
0S!
#1845000
1"
1m
1S!
#1850000
0"
0m
0S!
#1855000
1"
1m
1S!
#1860000
0"
0m
0S!
#1865000
1"
1m
1S!
#1870000
0"
0m
0S!
#1875000
1"
1m
1S!
#1880000
0"
0m
0S!
#1885000
1"
1m
1S!
#1890000
0"
0m
0S!
#1895000
1"
1m
1S!
#1900000
0"
0m
0S!
#1905000
1"
1m
1S!
#1910000
0"
0m
0S!
#1915000
1"
1m
1S!
#1920000
0"
0m
0S!
#1925000
1"
1m
1S!
#1930000
0"
0m
0S!
#1935000
1"
1m
1S!
#1940000
0"
0m
0S!
#1945000
1"
1m
1S!
#1950000
0"
0m
0S!
#1955000
1"
1m
1S!
#1960000
0"
0m
0S!
#1965000
1"
1m
1S!
#1970000
0"
0m
0S!
#1975000
1"
1m
1S!
#1980000
0"
0m
0S!
#1985000
1"
1m
1S!
#1990000
0"
0m
0S!
#1995000
1"
1m
1S!
#2000000
0"
0m
0S!
#2005000
1"
1m
1S!
#2010000
0"
0m
0S!
#2015000
1"
1m
1S!
#2020000
0"
0m
0S!
#2025000
1"
1m
1S!
#2030000
0"
0m
0S!
#2035000
1"
1m
1S!
#2040000
0"
0m
0S!
#2045000
1"
1m
1S!
#2050000
0"
0m
0S!
#2055000
1"
1m
1S!
#2060000
0"
0m
0S!
#2065000
1"
1m
1S!
#2070000
0"
0m
0S!
#2075000
1"
1m
1S!
#2080000
0"
0m
0S!
#2085000
1"
1m
1S!
#2090000
0"
0m
0S!
#2095000
1"
1m
1S!
#2100000
0"
0m
0S!
#2105000
1"
1m
1S!
#2110000
0"
0m
0S!
#2115000
1"
1m
1S!
#2120000
0"
0m
0S!
#2125000
1"
1m
1S!
#2130000
0"
0m
0S!
#2135000
1"
1m
1S!
#2140000
0"
0m
0S!
#2145000
1"
1m
1S!
#2150000
0"
0m
0S!
#2155000
1"
1m
1S!
#2160000
0"
0m
0S!
#2165000
1"
1m
1S!
#2170000
0"
0m
0S!
#2175000
1"
1m
1S!
#2180000
0"
0m
0S!
#2185000
1"
1m
1S!
#2190000
0"
0m
0S!
#2195000
1"
1m
1S!
#2200000
0"
0m
0S!
#2205000
1"
1m
1S!
#2210000
0"
0m
0S!
#2215000
1"
1m
1S!
#2220000
0"
0m
0S!
#2225000
1"
1m
1S!
#2230000
0"
0m
0S!
#2235000
1"
1m
1S!
#2240000
0"
0m
0S!
#2245000
1"
1m
1S!
#2250000
0"
0m
0S!
#2255000
1"
1m
1S!
#2260000
0"
0m
0S!
#2265000
1"
1m
1S!
#2270000
0"
0m
0S!
#2275000
1"
1m
1S!
#2280000
0"
0m
0S!
#2285000
1"
1m
1S!
#2290000
0"
0m
0S!
#2295000
1"
1m
1S!
#2300000
0"
0m
0S!
#2305000
1"
1m
1S!
#2310000
0"
0m
0S!
#2315000
1"
1m
1S!
#2320000
0"
0m
0S!
#2325000
1"
1m
1S!
#2330000
0"
0m
0S!
#2335000
1"
1m
1S!
#2340000
0"
0m
0S!
#2345000
1"
1m
1S!
#2350000
0"
0m
0S!
#2355000
1"
1m
1S!
#2360000
0"
0m
0S!
#2365000
1"
1m
1S!
#2370000
0"
0m
0S!
#2375000
1"
1m
1S!
#2380000
0"
0m
0S!
#2385000
1"
1m
1S!
#2390000
0"
0m
0S!
#2395000
1"
1m
1S!
#2400000
0"
0m
0S!
#2405000
1"
1m
1S!
#2410000
0"
0m
0S!
#2415000
1"
1m
1S!
#2420000
0"
0m
0S!
#2425000
1"
1m
1S!
#2430000
0"
0m
0S!
#2435000
1"
1m
1S!
#2440000
0"
0m
0S!
#2445000
1"
1m
1S!
#2450000
0"
0m
0S!
#2455000
1"
1m
1S!
#2460000
0"
0m
0S!
#2465000
1"
1m
1S!
#2470000
0"
0m
0S!
#2475000
1"
1m
1S!
#2480000
0"
0m
0S!
#2485000
1"
1m
1S!
#2490000
0"
0m
0S!
#2495000
1"
1m
1S!
#2500000
0"
0m
0S!
#2505000
1"
1m
1S!
#2510000
0"
0m
0S!
#2515000
1"
1m
1S!
#2520000
0"
0m
0S!
#2525000
1"
1m
1S!
#2530000
0"
0m
0S!
#2535000
1"
1m
1S!
#2540000
0"
0m
0S!
#2545000
1"
1m
1S!
#2550000
0"
0m
0S!
#2555000
1"
1m
1S!
#2560000
0"
0m
0S!
#2565000
1"
1m
1S!
#2570000
0"
0m
0S!
#2575000
1"
1m
1S!
#2580000
0"
0m
0S!
#2585000
1"
1m
1S!
#2590000
0"
0m
0S!
#2595000
1"
1m
1S!
#2600000
0"
0m
0S!
#2605000
1"
1m
1S!
#2610000
0"
0m
0S!
#2615000
1"
1m
1S!
#2620000
0"
0m
0S!
#2625000
1"
1m
1S!
#2630000
0"
0m
0S!
#2635000
1"
1m
1S!
#2640000
0"
0m
0S!
#2645000
1"
1m
1S!
#2650000
0"
0m
0S!
#2655000
1"
1m
1S!
#2660000
0"
0m
0S!
#2665000
1"
1m
1S!
#2670000
0"
0m
0S!
#2675000
1"
1m
1S!
#2680000
0"
0m
0S!
#2685000
1"
1m
1S!
#2690000
0"
0m
0S!
#2695000
1"
1m
1S!
#2700000
0"
0m
0S!
#2705000
1"
1m
1S!
#2710000
0"
0m
0S!
#2715000
1"
1m
1S!
#2720000
0"
0m
0S!
#2725000
1"
1m
1S!
#2730000
0"
0m
0S!
#2735000
1"
1m
1S!
#2740000
0"
0m
0S!
#2745000
1"
1m
1S!
#2750000
0"
0m
0S!
#2755000
1"
1m
1S!
#2760000
0"
0m
0S!
#2765000
1"
1m
1S!
#2770000
0"
0m
0S!
#2775000
1"
1m
1S!
#2780000
0"
0m
0S!
#2785000
1"
1m
1S!
#2790000
0"
0m
0S!
#2795000
1"
1m
1S!
#2800000
0"
0m
0S!
#2805000
1"
1m
1S!
#2810000
0"
0m
0S!
#2815000
1"
1m
1S!
#2820000
0"
0m
0S!
#2825000
1"
1m
1S!
#2830000
0"
0m
0S!
#2835000
1"
1m
1S!
#2840000
0"
0m
0S!
#2845000
1"
1m
1S!
#2850000
0"
0m
0S!
#2855000
1"
1m
1S!
#2860000
0"
0m
0S!
#2865000
1"
1m
1S!
#2870000
0"
0m
0S!
#2875000
1"
1m
1S!
#2880000
0"
0m
0S!
#2885000
1"
1m
1S!
#2890000
0"
0m
0S!
#2895000
1"
1m
1S!
#2900000
0"
0m
0S!
#2905000
1"
1m
1S!
#2910000
0"
0m
0S!
#2915000
1"
1m
1S!
#2920000
0"
0m
0S!
#2925000
1"
1m
1S!
#2930000
0"
0m
0S!
#2935000
1"
1m
1S!
#2940000
0"
0m
0S!
#2945000
1"
1m
1S!
#2950000
0"
0m
0S!
#2955000
1"
1m
1S!
#2960000
0"
0m
0S!
#2965000
1"
1m
1S!
#2970000
0"
0m
0S!
#2975000
1"
1m
1S!
#2980000
0"
0m
0S!
#2985000
1"
1m
1S!
#2990000
0"
0m
0S!
#2995000
1"
1m
1S!
#3000000
0"
0m
0S!
#3005000
1"
1m
1S!
#3010000
0"
0m
0S!
#3015000
1"
1m
1S!
#3020000
0"
0m
0S!
#3025000
1"
1m
1S!
#3030000
0"
0m
0S!
#3035000
1"
1m
1S!
#3040000
0"
0m
0S!
#3045000
1"
1m
1S!
#3050000
0"
0m
0S!
#3055000
1"
1m
1S!
#3060000
0"
0m
0S!
#3065000
1"
1m
1S!
#3070000
0"
0m
0S!
#3075000
1"
1m
1S!
#3080000
0"
0m
0S!
#3085000
1"
1m
1S!
#3090000
0"
0m
0S!
#3095000
1"
1m
1S!
#3100000
0"
0m
0S!
#3105000
1"
1m
1S!
#3110000
0"
0m
0S!
#3115000
1"
1m
1S!
#3120000
0"
0m
0S!
#3125000
1"
1m
1S!
#3130000
0"
0m
0S!
#3135000
1"
1m
1S!
#3140000
0"
0m
0S!
#3145000
1"
1m
1S!
#3150000
0"
0m
0S!
#3155000
1"
1m
1S!
#3160000
0"
0m
0S!
#3165000
1"
1m
1S!
#3170000
0"
0m
0S!
#3175000
1"
1m
1S!
#3180000
0"
0m
0S!
#3185000
1"
1m
1S!
#3190000
0"
0m
0S!
#3195000
1"
1m
1S!
#3200000
0"
0m
0S!
#3205000
1"
1m
1S!
#3210000
0"
0m
0S!
#3215000
1"
1m
1S!
#3220000
0"
0m
0S!
#3225000
1"
1m
1S!
#3230000
0"
0m
0S!
#3235000
1"
1m
1S!
#3240000
0"
0m
0S!
#3245000
1"
1m
1S!
#3250000
0"
0m
0S!
#3255000
1"
1m
1S!
#3260000
0"
0m
0S!
#3265000
1"
1m
1S!
#3270000
0"
0m
0S!
#3275000
1"
1m
1S!
#3280000
0"
0m
0S!
#3285000
1"
1m
1S!
#3290000
0"
0m
0S!
#3295000
1"
1m
1S!
#3300000
0"
0m
0S!
#3305000
1"
1m
1S!
#3310000
0"
0m
0S!
#3315000
1"
1m
1S!
#3320000
0"
0m
0S!
#3325000
1"
1m
1S!
#3330000
0"
0m
0S!
#3335000
1"
1m
1S!
#3340000
0"
0m
0S!
#3345000
1"
1m
1S!
#3350000
0"
0m
0S!
#3355000
1"
1m
1S!
#3360000
0"
0m
0S!
#3365000
1"
1m
1S!
#3370000
0"
0m
0S!
#3375000
1"
1m
1S!
#3380000
0"
0m
0S!
#3385000
1"
1m
1S!
#3390000
0"
0m
0S!
#3395000
1"
1m
1S!
#3400000
0"
0m
0S!
#3405000
1"
1m
1S!
#3410000
0"
0m
0S!
#3415000
1"
1m
1S!
#3420000
0"
0m
0S!
#3425000
1"
1m
1S!
#3430000
0"
0m
0S!
#3435000
1"
1m
1S!
#3440000
0"
0m
0S!
#3445000
1"
1m
1S!
#3450000
0"
0m
0S!
#3455000
1"
1m
1S!
#3460000
0"
0m
0S!
#3465000
1"
1m
1S!
#3470000
0"
0m
0S!
#3475000
1"
1m
1S!
#3480000
0"
0m
0S!
#3485000
1"
1m
1S!
#3490000
0"
0m
0S!
#3495000
1"
1m
1S!
#3500000
0"
0m
0S!
#3505000
1"
1m
1S!
#3510000
0"
0m
0S!
#3515000
1"
1m
1S!
#3520000
0"
0m
0S!
#3525000
1"
1m
1S!
#3530000
0"
0m
0S!
#3535000
1"
1m
1S!
#3540000
0"
0m
0S!
#3545000
1"
1m
1S!
#3550000
0"
0m
0S!
#3555000
1"
1m
1S!
#3560000
0"
0m
0S!
#3565000
1"
1m
1S!
#3570000
0"
0m
0S!
#3575000
1"
1m
1S!
#3580000
0"
0m
0S!
#3585000
1"
1m
1S!
#3590000
0"
0m
0S!
#3595000
1"
1m
1S!
#3600000
0"
0m
0S!
#3605000
1"
1m
1S!
#3610000
0"
0m
0S!
#3615000
1"
1m
1S!
#3620000
0"
0m
0S!
#3625000
1"
1m
1S!
#3630000
0"
0m
0S!
#3635000
1"
1m
1S!
#3640000
0"
0m
0S!
#3645000
1"
1m
1S!
#3650000
0"
0m
0S!
#3655000
1"
1m
1S!
#3660000
0"
0m
0S!
#3665000
1"
1m
1S!
#3670000
0"
0m
0S!
#3675000
1"
1m
1S!
#3680000
0"
0m
0S!
#3685000
1"
1m
1S!
#3690000
0"
0m
0S!
#3695000
1"
1m
1S!
#3700000
0"
0m
0S!
#3705000
1"
1m
1S!
#3710000
0"
0m
0S!
#3715000
1"
1m
1S!
#3720000
0"
0m
0S!
#3725000
1"
1m
1S!
#3730000
0"
0m
0S!
#3735000
1"
1m
1S!
#3740000
0"
0m
0S!
#3745000
1"
1m
1S!
#3750000
0"
0m
0S!
#3755000
1"
1m
1S!
#3760000
0"
0m
0S!
#3765000
1"
1m
1S!
#3770000
0"
0m
0S!
#3775000
1"
1m
1S!
#3780000
0"
0m
0S!
#3785000
1"
1m
1S!
#3790000
0"
0m
0S!
#3795000
1"
1m
1S!
#3800000
0"
0m
0S!
#3805000
1"
1m
1S!
#3810000
0"
0m
0S!
#3815000
1"
1m
1S!
#3820000
0"
0m
0S!
#3825000
1"
1m
1S!
#3830000
0"
0m
0S!
#3835000
1"
1m
1S!
#3840000
0"
0m
0S!
#3845000
1"
1m
1S!
#3850000
0"
0m
0S!
#3855000
1"
1m
1S!
#3860000
0"
0m
0S!
#3865000
1"
1m
1S!
#3870000
0"
0m
0S!
#3875000
1"
1m
1S!
#3880000
0"
0m
0S!
#3885000
1"
1m
1S!
#3890000
0"
0m
0S!
#3895000
1"
1m
1S!
